result/fifo_simulation.vcd
$date
	Sun Aug 17 10:19:37 2025
$end
$version
	Icarus Verilog
$end
$timescale
	1ps
$end
$scope module FIFO_tb $end
$var wire 1 ! full $end
$var wire 1 " error $end
$var wire 1 # empty $end
$var wire 8 $ data_out [7:0] $end
$var reg 1 % clk $end
$var reg 8 & data_in [7:0] $end
$var reg 1 ' pop $end
$var reg 1 ( push $end
$var reg 1 ) rst $end
$scope module uut $end
$var wire 1 % clk $end
$var wire 8 * data_in [7:0] $end
$var wire 1 ! full $end
$var wire 1 ' pop $end
$var wire 1 ( push $end
$var wire 1 ) rst $end
$var wire 1 # empty $end
$var wire 5 + count [4:0] $end
$var reg 8 , data_out [7:0] $end
$var reg 1 " error $end
$var reg 5 - head [4:0] $end
$var reg 5 . tail [4:0] $end
$upscope $end
$scope begin $ivl_for_loop0 $end
$var integer 32 / i [31:0] $end
$upscope $end
$scope begin $ivl_for_loop1 $end
$var integer 32 0 i [31:0] $end
$upscope $end
$scope begin $ivl_for_loop2 $end
$var integer 32 1 i [31:0] $end
$upscope $end
$scope begin $ivl_for_loop3 $end
$var integer 32 2 i [31:0] $end
$upscope $end
$upscope $end
$enddefinitions $end
$comment Show the parameter values. $end
$dumpall
$end
#0
$dumpvars
b0 2
b0 1
b0 0
b0 /
b0 .
b0 -
b0 ,
b0 +
b0 *
1)
0(
0'
b0 &
0%
b0 $
1#
0"
0!
$end
#5000
1%
#10000
0%
#15000
1%
#20000
0%
b10100101 &
b10100101 *
1(
0)
#25000
b1 +
0#
b1 -
1%
#30000
0%
1'
0(
#35000
b0 +
1#
b1 .
b10100101 $
b10100101 ,
1%
#40000
0%
0'
#45000
1%
#50000
0%
b0 &
b0 *
1(
#55000
b1 +
0#
b10 -
1%
#60000
0%
0(
#65000
1%
#70000
0%
b1 &
b1 *
1(
b1 /
#75000
b10 +
b11 -
1%
#80000
0%
0(
#85000
1%
#90000
0%
b10 &
b10 *
1(
b10 /
#95000
b11 +
b100 -
1%
#100000
0%
0(
#105000
1%
#110000
0%
b11 &
b11 *
1(
b11 /
#115000
b100 +
b101 -
1%
#120000
0%
0(
#125000
1%
#130000
0%
b100 &
b100 *
1(
b100 /
#135000
b101 +
b110 -
1%
#140000
0%
0(
#145000
1%
#150000
0%
b101 &
b101 *
1(
b101 /
#155000
b110 +
b111 -
1%
#160000
0%
0(
#165000
1%
#170000
0%
b110 &
b110 *
1(
b110 /
#175000
b111 +
b1000 -
1%
#180000
0%
0(
#185000
1%
#190000
0%
b111 &
b111 *
1(
b111 /
#195000
b1000 +
b1001 -
1%
#200000
0%
0(
#205000
1%
#210000
0%
b1000 &
b1000 *
1(
b1000 /
#215000
b1001 +
b1010 -
1%
#220000
0%
0(
#225000
1%
#230000
0%
b1001 &
b1001 *
1(
b1001 /
#235000
b1010 +
b1011 -
1%
#240000
0%
0(
#245000
1%
#250000
0%
b1010 &
b1010 *
1(
b1010 /
#255000
b1011 +
b1100 -
1%
#260000
0%
0(
#265000
1%
#270000
0%
b1011 &
b1011 *
1(
b1011 /
#275000
b1100 +
b1101 -
1%
#280000
0%
0(
#285000
1%
#290000
0%
b1100 &
b1100 *
1(
b1100 /
#295000
b1101 +
b1110 -
1%
#300000
0%
0(
#305000
1%
#310000
0%
b1101 &
b1101 *
1(
b1101 /
#315000
b1110 +
b1111 -
1%
#320000
0%
0(
#325000
b11110 +
b11111 -
1%
#330000
0%
b1110 &
b1110 *
1(
b1110 /
#335000
b1111 +
b0 -
1%
#340000
0%
0(
#345000
1%
#350000
0%
b1111 &
b1111 *
1(
b1111 /
#355000
b0 +
1#
b1 -
1%
#360000
0%
0(
#365000
1%
#370000
0%
b11111111 &
b11111111 *
1(
b10000 /
#375000
b1 +
0#
b10 -
1%
#380000
0%
0(
#385000
1%
#390000
0%
1'
#395000
b0 +
1#
b10 .
b11111111 $
b11111111 ,
1%
#400000
0%
0'
#405000
1%
#410000
0%
1'
b1 0
#415000
1"
1%
#420000
0%
0'
#425000
0"
1%
#430000
0%
1'
b10 0
#435000
1"
1%
#440000
0%
0'
#445000
0"
1%
#450000
0%
1'
b11 0
#455000
1"
1%
#460000
0%
0'
#465000
0"
1%
#470000
0%
1'
b100 0
#475000
1"
1%
#480000
0%
0'
#485000
0"
1%
#490000
0%
1'
b101 0
#495000
1"
1%
#500000
0%
0'
#505000
0"
1%
#510000
0%
1'
b110 0
#515000
1"
1%
#520000
0%
0'
#525000
0"
1%
#530000
0%
1'
b111 0
#535000
1"
1%
#540000
0%
0'
#545000
0"
1%
#550000
0%
1'
b1000 0
#555000
1"
1%
#560000
0%
0'
#565000
0"
1%
#570000
0%
1'
b1001 0
#575000
1"
1%
#580000
0%
0'
#585000
0"
1%
#590000
0%
1'
b1010 0
#595000
1"
1%
#600000
0%
0'
#605000
0"
1%
#610000
0%
1'
b1011 0
#615000
1"
1%
#620000
0%
0'
#625000
0"
1%
#630000
0%
1'
b1100 0
#635000
1"
1%
#640000
0%
0'
#645000
0"
1%
#650000
0%
1'
b1101 0
#655000
1"
1%
#660000
0%
0'
#665000
0"
1%
#670000
0%
1'
b1110 0
#675000
1"
1%
#680000
0%
0'
#685000
0"
1%
#690000
0%
1'
b1111 0
#695000
1"
1%
#700000
0%
0'
#705000
0"
1%
#710000
0%
1'
b10000 0
#715000
1"
1%
#720000
0%
0'
#725000
0"
1%
#730000
0%
b1010101 &
b1010101 *
1'
1(
#735000
b1 +
0#
b11 -
1"
1%
#740000
0%
0'
0(
#745000
0"
1%
#750000
0%
b1100100 &
b1100100 *
1(
#755000
b10 +
b100 -
1%
#760000
0%
0(
#765000
1%
#770000
0%
b1100101 &
b1100101 *
1(
b1 1
#775000
b11 +
b101 -
1%
#780000
0%
0(
#785000
1%
#790000
0%
b1100110 &
b1100110 *
1(
b10 1
#795000
b100 +
b110 -
1%
#800000
0%
0(
#805000
1%
#810000
0%
b1100111 &
b1100111 *
1(
b11 1
#815000
b101 +
b111 -
1%
#820000
0%
0(
#825000
1%
#830000
0%
b1101000 &
b1101000 *
1(
b100 1
#835000
b110 +
b1000 -
1%
#840000
0%
0(
#845000
1%
#850000
0%
b1101001 &
b1101001 *
1(
b101 1
#855000
b111 +
b1001 -
1%
#860000
0%
0(
#865000
1%
#870000
0%
b1101010 &
b1101010 *
1(
b110 1
#875000
b1000 +
b1010 -
1%
#880000
0%
0(
#885000
1%
#890000
0%
b1101011 &
b1101011 *
1(
b111 1
#895000
b1001 +
b1011 -
1%
#900000
0%
0(
#905000
1%
#910000
0%
b1101100 &
b1101100 *
1(
b1000 1
#915000
b1010 +
b1100 -
1%
#920000
0%
0(
#925000
1%
#930000
0%
b1101101 &
b1101101 *
1(
b1001 1
#935000
b1011 +
b1101 -
1%
#940000
0%
0(
#945000
1%
#950000
0%
b1101110 &
b1101110 *
1(
b1010 1
#955000
b1100 +
b1110 -
1%
#960000
0%
0(
#965000
1%
#970000
0%
b1101111 &
b1101111 *
1(
b1011 1
#975000
b1101 +
b1111 -
1%
#980000
0%
0(
#985000
b11101 +
b11111 -
1%
#990000
0%
b1110000 &
b1110000 *
1(
b1100 1
#995000
b1110 +
b0 -
1%
#1000000
0%
0(
#1005000
1%
#1010000
0%
b1110001 &
b1110001 *
1(
b1101 1
#1015000
b1111 +
b1 -
1%
#1020000
0%
0(
#1025000
1%
#1030000
0%
b1110010 &
b1110010 *
1(
b1110 1
#1035000
b0 +
1#
b10 -
1%
#1040000
0%
0(
#1045000
1%
#1050000
0%
b10101010 &
b10101010 *
1'
1(
b1111 1
#1055000
b1 +
0#
b11 -
1"
1%
#1060000
0%
0'
0(
#1065000
0"
1%
#1070000
0%
b1001 &
b1001 *
1'
#1075000
b0 +
1#
b11 .
b10101010 $
b10101010 ,
1%
#1080000
0%
b10001101 &
b10001101 *
1(
b1 2
#1085000
b1 +
0#
b100 -
1"
1%
#1090000
0%
b1 &
b1 *
0'
b10 2
#1095000
b10 +
b101 -
0"
1%
#1100000
0%
b111101 &
b111101 *
b11 2
#1105000
b11 +
b110 -
1%
#1110000
0%
b11111001 &
b11111001 *
b100 2
#1115000
b100 +
b111 -
1%
#1120000
0%
b10101010 &
b10101010 *
1'
0(
b101 2
#1125000
b11 +
b100 .
b10001101 $
b10001101 ,
1%
#1130000
0%
b10010 &
b10010 *
1(
b110 2
#1135000
b101 .
b1000 -
b1 $
b1 ,
1%
#1140000
0%
b11001110 &
b11001110 *
0'
b111 2
#1145000
b100 +
b1001 -
1%
#1150000
0%
b1011100 &
b1011100 *
1'
0(
b1000 2
#1155000
b11 +
b110 .
b111101 $
b111101 ,
1%
#1160000
0%
b1100101 &
b1100101 *
1(
b1001 2
#1165000
b111 .
b1010 -
b11111001 $
b11111001 ,
1%
#1170000
0%
b10000000 &
b10000000 *
0'
b1010 2
#1175000
b100 +
b1011 -
1%
#1180000
0%
b10011101 &
b10011101 *
0(
b1011 2
#1185000
1%
#1190000
0%
b1101 &
b1101 *
1'
b1100 2
#1195000
b11 +
b1000 .
b10010 $
b10010 ,
1%
#1200000
0%
b11010101 &
b11010101 *
1(
b1101 2
#1205000
b1001 .
b1100 -
b11001110 $
b11001110 ,
1%
#1210000
0%
b11101 &
b11101 *
0'
0(
b1110 2
#1215000
1%
#1220000
0%
b1010 &
b1010 *
1'
1(
b1111 2
#1225000
b1010 .
b1101 -
b1100101 $
b1100101 ,
1%
#1230000
0%
b11110010 &
b11110010 *
0'
0(
b10000 2
#1235000
1%
#1240000
0%
b11011000 &
b11011000 *
1'
b10001 2
#1245000
b10 +
b1011 .
b10000000 $
b10000000 ,
1%
#1250000
0%
b11101011 &
b11101011 *
b10010 2
#1255000
b1 +
b1100 .
b11010101 $
b11010101 ,
1%
#1260000
0%
b10101110 &
b10101110 *
0'
b10011 2
#1265000
1%
#1270000
0%
b1011 &
b1011 *
b10100 2
#1275000
1%
#1280000
0%
b1001111 &
b1001111 *
1'
1(
b10101 2
#1285000
b1101 .
b1110 -
b1010 $
b1010 ,
1%
#1290000
0%
b1111110 &
b1111110 *
0'
b10110 2
#1295000
b10 +
b1111 -
1%
#1300000
0%
b11011001 &
b11011001 *
1'
b10111 2
#1305000
b1110 .
b10000 -
b1001111 $
b1001111 ,
1%
#1310000
0%
b10011111 &
b10011111 *
0'
0(
b11000 2
#1315000
1%
#1320000
0%
b10110111 &
b10110111 *
1(
b11001 2
#1325000
b11 +
b10001 -
1%
#1330000
0%
b1011011 &
b1011011 *
b11010 2
#1335000
b100 +
b10010 -
1%
#1340000
0%
b11010000 &
b11010000 *
1'
b11011 2
#1345000
b1111 .
b10011 -
b1111110 $
b1111110 ,
1%
#1350000
0%
b10010110 &
b10010110 *
b11100 2
#1355000
b10000 .
b10100 -
b11011001 $
b11011001 ,
1%
#1360000
0%
b11001000 &
b11001000 *
0'
0(
b11101 2
#1365000
1%
#1370000
0%
b10010 &
b10010 *
1'
1(
b11110 2
#1375000
b10001 .
b10101 -
b10110111 $
b10110111 ,
1%
#1380000
0%
b111001 &
b111001 *
0(
b11111 2
#1385000
b11 +
b10010 .
b1011011 $
b1011011 ,
1%
#1390000
0%
b10000101 &
b10000101 *
1(
b100000 2
#1395000
b10011 .
b10110 -
b11010000 $
b11010000 ,
1%
#1400000
0%
b1001001 &
b1001001 *
0(
b100001 2
#1405000
b10 +
b10100 .
b10010110 $
b10010110 ,
1%
#1410000
0%
b1011000 &
b1011000 *
0'
1(
b100010 2
#1415000
b11 +
b10111 -
1%
#1420000
0%
b10011100 &
b10011100 *
0(
b100011 2
#1425000
1%
#1430000
0%
b1110011 &
b1110011 *
b100100 2
#1435000
1%
#1440000
0%
b10110011 &
b10110011 *
1'
1(
b100101 2
#1445000
b10101 .
b11000 -
b10010 $
b10010 ,
1%
#1450000
0%
b11110111 &
b11110111 *
0'
b100110 2
#1455000
b100 +
b11001 -
1%
#1460000
0%
b1011010 &
b1011010 *
b100111 2
#1465000
b101 +
b11010 -
1%
#1470000
0%
b11011010 &
b11011010 *
1'
b101000 2
#1475000
b10110 .
b11011 -
b10000101 $
b10000101 ,
1%
#1480000
0%
b11011111 &
b11011111 *
b101001 2
#1485000
b10111 .
b11100 -
b1011000 $
b1011000 ,
1%
#1490000
0%
b11010000 &
b11010000 *
0'
b101010 2
#1495000
b110 +
b11101 -
1%
#1500000
0%
b1110 &
b1110 *
1'
0(
b101011 2
#1505000
b101 +
b11000 .
b10110011 $
b10110011 ,
1%
#1510000
0%
b11111101 &
b11111101 *
0'
b101100 2
#1515000
1%
#1520000
0%
b1001110 &
b1001110 *
1(
b101101 2
#1525000
b110 +
b11110 -
1%
#1530000
0%
b10110110 &
b10110110 *
b101110 2
#1535000
b111 +
b11111 -
1%
#1540000
0%
b10111000 &
b10111000 *
1'
0(
b101111 2
#1545000
b110 +
b1111 -
b11001 .
b11110111 $
b11110111 ,
1%
#1550000
0%
b100 &
b100 *
b110000 2
#1555000
b101 +
b11111 -
b11010 .
b1011010 $
b1011010 ,
1%
#1560000
0%
b1001101 &
b1001101 *
1(
b110001 2
#1565000
b10101 +
b11011 .
b0 -
b11011010 $
b11011010 ,
1%
#1570000
0%
b110010 2
